Vivado/IIR/IIR.sim/sim_1/behav/xsim/simulate.log
Time resolution is 1 ps
Time: 0 | rst: 1 | cke: 0 | xn:      0 | yn:           x
Time: 5000 | rst: 1 | cke: 0 | xn:      0 | yn:           0
Time: 20000 | rst: 0 | cke: 1 | xn:      0 | yn:           0
Time: 30000 | rst: 0 | cke: 1 | xn:     10 | yn:           0
Time: 55000 | rst: 0 | cke: 1 | xn:     10 | yn:        3280
Time: 75000 | rst: 0 | cke: 1 | xn:     10 | yn:        6527
Time: 95000 | rst: 0 | cke: 1 | xn:     10 | yn:        9741
Time: 115000 | rst: 0 | cke: 1 | xn:     10 | yn:       12923
Time: 135000 | rst: 0 | cke: 1 | xn:     10 | yn:       16073
Time: 155000 | rst: 0 | cke: 1 | xn:     10 | yn:       19192
Time: 175000 | rst: 0 | cke: 1 | xn:     10 | yn:       22279
Time: 195000 | rst: 0 | cke: 1 | xn:     10 | yn:       25335
Time: 215000 | rst: 0 | cke: 1 | xn:     10 | yn:       28361
Time: 235000 | rst: 0 | cke: 1 | xn:     10 | yn:       31357
Time: 255000 | rst: 0 | cke: 1 | xn:     10 | yn:       34323
Time: 275000 | rst: 0 | cke: 1 | xn:     10 | yn:       37259
Time: 295000 | rst: 0 | cke: 1 | xn:     10 | yn:       40166
Time: 315000 | rst: 0 | cke: 1 | xn:     10 | yn:       43043
Time: 335000 | rst: 0 | cke: 1 | xn:     10 | yn:       45892
Time: 355000 | rst: 0 | cke: 1 | xn:     10 | yn:       48712
Time: 375000 | rst: 0 | cke: 1 | xn:     10 | yn:       51504
Time: 395000 | rst: 0 | cke: 1 | xn:     10 | yn:       54268
Time: 415000 | rst: 0 | cke: 1 | xn:     10 | yn:       57004
Time: 435000 | rst: 0 | cke: 1 | xn:     10 | yn:       59713
Time: 455000 | rst: 0 | cke: 1 | xn:     10 | yn:       62395
Time: 475000 | rst: 0 | cke: 1 | xn:     10 | yn:       65050
Time: 495000 | rst: 0 | cke: 1 | xn:     10 | yn:       67678
Time: 515000 | rst: 0 | cke: 1 | xn:     10 | yn:       70280
Time: 535000 | rst: 0 | cke: 1 | xn:     10 | yn:       72856
Time: 555000 | rst: 0 | cke: 1 | xn:     10 | yn:       75406
Time: 575000 | rst: 0 | cke: 1 | xn:     10 | yn:       77931
Time: 595000 | rst: 0 | cke: 1 | xn:     10 | yn:       80430
Time: 615000 | rst: 0 | cke: 1 | xn:     10 | yn:       82904
Time: 635000 | rst: 0 | cke: 1 | xn:     10 | yn:       85354
Time: 655000 | rst: 0 | cke: 1 | xn:     10 | yn:       87779
Time: 675000 | rst: 0 | cke: 1 | xn:     10 | yn:       90180
Time: 695000 | rst: 0 | cke: 1 | xn:     10 | yn:       92557
Time: 715000 | rst: 0 | cke: 1 | xn:     10 | yn:       94910
Time: 735000 | rst: 0 | cke: 1 | xn:     10 | yn:       97239
Time: 755000 | rst: 0 | cke: 1 | xn:     10 | yn:       99545
Time: 775000 | rst: 0 | cke: 1 | xn:     10 | yn:      101828
Time: 795000 | rst: 0 | cke: 1 | xn:     10 | yn:      104088
Time: 815000 | rst: 0 | cke: 1 | xn:     10 | yn:      106326
Time: 835000 | rst: 0 | cke: 1 | xn:     10 | yn:      108541
Time: 855000 | rst: 0 | cke: 1 | xn:     10 | yn:      110734
Time: 875000 | rst: 0 | cke: 1 | xn:     10 | yn:      112905
Time: 895000 | rst: 0 | cke: 1 | xn:     10 | yn:      115054
Time: 915000 | rst: 0 | cke: 1 | xn:     10 | yn:      117182
Time: 935000 | rst: 0 | cke: 1 | xn:     10 | yn:      119289
Time: 955000 | rst: 0 | cke: 1 | xn:     10 | yn:      121374
Time: 975000 | rst: 0 | cke: 1 | xn:     10 | yn:      123439
Time: 995000 | rst: 0 | cke: 1 | xn:     10 | yn:      125483
Time: 1015000 | rst: 0 | cke: 1 | xn:     10 | yn:      127506
Time: 1035000 | rst: 0 | cke: 1 | xn:     10 | yn:      129509
Time: 1055000 | rst: 0 | cke: 1 | xn:     10 | yn:      131492
Time: 1075000 | rst: 0 | cke: 1 | xn:     10 | yn:      133455
Time: 1095000 | rst: 0 | cke: 1 | xn:     10 | yn:      135399
Time: 1115000 | rst: 0 | cke: 1 | xn:     10 | yn:      137323
Time: 1135000 | rst: 0 | cke: 1 | xn:     10 | yn:      139228
Time: 1155000 | rst: 0 | cke: 1 | xn:     10 | yn:      141114
Time: 1175000 | rst: 0 | cke: 1 | xn:     10 | yn:      142981
Time: 1195000 | rst: 0 | cke: 1 | xn:     10 | yn:      144829
Time: 1215000 | rst: 0 | cke: 1 | xn:     10 | yn:      146659
Time: 1235000 | rst: 0 | cke: 1 | xn:     10 | yn:      148470
Time: 1255000 | rst: 0 | cke: 1 | xn:     10 | yn:      150263
Time: 1275000 | rst: 0 | cke: 1 | xn:     10 | yn:      152038
Time: 1295000 | rst: 0 | cke: 1 | xn:     10 | yn:      153796
Time: 1315000 | rst: 0 | cke: 1 | xn:     10 | yn:      155536
Time: 1335000 | rst: 0 | cke: 1 | xn:     10 | yn:      157259
Time: 1355000 | rst: 0 | cke: 1 | xn:     10 | yn:      158964
Time: 1375000 | rst: 0 | cke: 1 | xn:     10 | yn:      160652
Time: 1395000 | rst: 0 | cke: 1 | xn:     10 | yn:      162323
Time: 1415000 | rst: 0 | cke: 1 | xn:     10 | yn:      163978
Time: 1435000 | rst: 0 | cke: 1 | xn:     10 | yn:      165616
Time: 1455000 | rst: 0 | cke: 1 | xn:     10 | yn:      167238
Time: 1475000 | rst: 0 | cke: 1 | xn:     10 | yn:      168843
Time: 1495000 | rst: 0 | cke: 1 | xn:     10 | yn:      170432
Time: 1515000 | rst: 0 | cke: 1 | xn:     10 | yn:      172006
Time: 1535000 | rst: 0 | cke: 1 | xn:     10 | yn:      173564
Time: 1555000 | rst: 0 | cke: 1 | xn:     10 | yn:      175106
Time: 1575000 | rst: 0 | cke: 1 | xn:     10 | yn:      176633
Time: 1595000 | rst: 0 | cke: 1 | xn:     10 | yn:      178144
Time: 1615000 | rst: 0 | cke: 1 | xn:     10 | yn:      179640
Time: 1635000 | rst: 0 | cke: 1 | xn:     10 | yn:      181121
Time: 1655000 | rst: 0 | cke: 1 | xn:     10 | yn:      182588
Time: 1675000 | rst: 0 | cke: 1 | xn:     10 | yn:      184040
Time: 1695000 | rst: 0 | cke: 1 | xn:     10 | yn:      185477
Time: 1715000 | rst: 0 | cke: 1 | xn:     10 | yn:      186900
Time: 1735000 | rst: 0 | cke: 1 | xn:     10 | yn:      188309
Time: 1755000 | rst: 0 | cke: 1 | xn:     10 | yn:      189704
Time: 1775000 | rst: 0 | cke: 1 | xn:     10 | yn:      191085
Time: 1795000 | rst: 0 | cke: 1 | xn:     10 | yn:      192452
Time: 1815000 | rst: 0 | cke: 1 | xn:     10 | yn:      193805
Time: 1835000 | rst: 0 | cke: 1 | xn:     10 | yn:      195145
Time: 1855000 | rst: 0 | cke: 1 | xn:     10 | yn:      196471
Time: 1875000 | rst: 0 | cke: 1 | xn:     10 | yn:      197784
Time: 1895000 | rst: 0 | cke: 1 | xn:     10 | yn:      199084
Time: 1915000 | rst: 0 | cke: 1 | xn:     10 | yn:      200371
Time: 1935000 | rst: 0 | cke: 1 | xn:     10 | yn:      201645
Time: 1955000 | rst: 0 | cke: 1 | xn:     10 | yn:      202906
Time: 1975000 | rst: 0 | cke: 1 | xn:     10 | yn:      204154
Time: 1995000 | rst: 0 | cke: 1 | xn:     10 | yn:      205390
Time: 2015000 | rst: 0 | cke: 1 | xn:     10 | yn:      206614
Time: 2035000 | rst: 0 | cke: 1 | xn:     10 | yn:      207825
Time: 2055000 | rst: 0 | cke: 1 | xn:     10 | yn:      209024
Time: 2075000 | rst: 0 | cke: 1 | xn:     10 | yn:      210211
Time: 2095000 | rst: 0 | cke: 1 | xn:     10 | yn:      211386
Time: 2115000 | rst: 0 | cke: 1 | xn:     10 | yn:      212550
Time: 2135000 | rst: 0 | cke: 1 | xn:     10 | yn:      213702
Time: 2155000 | rst: 0 | cke: 1 | xn:     10 | yn:      214842
Time: 2175000 | rst: 0 | cke: 1 | xn:     10 | yn:      215971
Time: 2195000 | rst: 0 | cke: 1 | xn:     10 | yn:      217089
Time: 2215000 | rst: 0 | cke: 1 | xn:     10 | yn:      218195
Time: 2235000 | rst: 0 | cke: 1 | xn:     10 | yn:      219290
Time: 2255000 | rst: 0 | cke: 1 | xn:     10 | yn:      220374
Time: 2275000 | rst: 0 | cke: 1 | xn:     10 | yn:      221448
Time: 2295000 | rst: 0 | cke: 1 | xn:     10 | yn:      222511
Time: 2315000 | rst: 0 | cke: 1 | xn:     10 | yn:      223563
Time: 2335000 | rst: 0 | cke: 1 | xn:     10 | yn:      224605
Time: 2355000 | rst: 0 | cke: 1 | xn:     10 | yn:      225636
Time: 2375000 | rst: 0 | cke: 1 | xn:     10 | yn:      226657
Time: 2395000 | rst: 0 | cke: 1 | xn:     10 | yn:      227668
Time: 2415000 | rst: 0 | cke: 1 | xn:     10 | yn:      228669
Time: 2435000 | rst: 0 | cke: 1 | xn:     10 | yn:      229660
Time: 2455000 | rst: 0 | cke: 1 | xn:     10 | yn:      230641
Time: 2475000 | rst: 0 | cke: 1 | xn:     10 | yn:      231612
Time: 2495000 | rst: 0 | cke: 1 | xn:     10 | yn:      232573
Time: 2515000 | rst: 0 | cke: 1 | xn:     10 | yn:      233524
Time: 2535000 | rst: 0 | cke: 1 | xn:     10 | yn:      234466
Time: 2555000 | rst: 0 | cke: 1 | xn:     10 | yn:      235399
Time: 2575000 | rst: 0 | cke: 1 | xn:     10 | yn:      236322
Time: 2595000 | rst: 0 | cke: 1 | xn:     10 | yn:      237236
Time: 2615000 | rst: 0 | cke: 1 | xn:     10 | yn:      238141
Time: 2635000 | rst: 0 | cke: 1 | xn:     10 | yn:      239037
Time: 2655000 | rst: 0 | cke: 1 | xn:     10 | yn:      239924
Time: 2675000 | rst: 0 | cke: 1 | xn:     10 | yn:      240802
Time: 2695000 | rst: 0 | cke: 1 | xn:     10 | yn:      241671
Time: 2715000 | rst: 0 | cke: 1 | xn:     10 | yn:      242531
Time: 2735000 | rst: 0 | cke: 1 | xn:     10 | yn:      243383
Time: 2755000 | rst: 0 | cke: 1 | xn:     10 | yn:      244226
Time: 2775000 | rst: 0 | cke: 1 | xn:     10 | yn:      245061
Time: 2795000 | rst: 0 | cke: 1 | xn:     10 | yn:      245887
Time: 2815000 | rst: 0 | cke: 1 | xn:     10 | yn:      246705
Time: 2835000 | rst: 0 | cke: 1 | xn:     10 | yn:      247515
Time: 2855000 | rst: 0 | cke: 1 | xn:     10 | yn:      248317
Time: 2875000 | rst: 0 | cke: 1 | xn:     10 | yn:      249111
Time: 2895000 | rst: 0 | cke: 1 | xn:     10 | yn:      249897
Time: 2915000 | rst: 0 | cke: 1 | xn:     10 | yn:      250675
Time: 2935000 | rst: 0 | cke: 1 | xn:     10 | yn:      251445
Time: 2955000 | rst: 0 | cke: 1 | xn:     10 | yn:      252208
Time: 2975000 | rst: 0 | cke: 1 | xn:     10 | yn:      252963
Time: 2995000 | rst: 0 | cke: 1 | xn:     10 | yn:      253710
Time: 3015000 | rst: 0 | cke: 1 | xn:     10 | yn:      254450
Time: 3035000 | rst: 0 | cke: 1 | xn:     10 | yn:      255183
Time: 3055000 | rst: 0 | cke: 1 | xn:     10 | yn:      255908
Time: 3075000 | rst: 0 | cke: 1 | xn:     10 | yn:      256626
Time: 3095000 | rst: 0 | cke: 1 | xn:     10 | yn:      257337
Time: 3115000 | rst: 0 | cke: 1 | xn:     10 | yn:      258041
Time: 3135000 | rst: 0 | cke: 1 | xn:     10 | yn:      258738
Time: 3155000 | rst: 0 | cke: 1 | xn:     10 | yn:      259428
Time: 3175000 | rst: 0 | cke: 1 | xn:     10 | yn:      260111
Time: 3195000 | rst: 0 | cke: 1 | xn:     10 | yn:      260787
Time: 3215000 | rst: 0 | cke: 1 | xn:     10 | yn:      261456
Time: 3235000 | rst: 0 | cke: 1 | xn:     10 | yn:      262118
Time: 3255000 | rst: 0 | cke: 1 | xn:     10 | yn:      262774
Time: 3275000 | rst: 0 | cke: 1 | xn:     10 | yn:      263423
Time: 3295000 | rst: 0 | cke: 1 | xn:     10 | yn:      264066
Time: 3315000 | rst: 0 | cke: 1 | xn:     10 | yn:      264702
Time: 3335000 | rst: 0 | cke: 1 | xn:     10 | yn:      265332
Time: 3355000 | rst: 0 | cke: 1 | xn:     10 | yn:      265956
Time: 3375000 | rst: 0 | cke: 1 | xn:     10 | yn:      266573
Time: 3395000 | rst: 0 | cke: 1 | xn:     10 | yn:      267184
Time: 3415000 | rst: 0 | cke: 1 | xn:     10 | yn:      267789
Time: 3435000 | rst: 0 | cke: 1 | xn:     10 | yn:      268388
Time: 3455000 | rst: 0 | cke: 1 | xn:     10 | yn:      268981
Time: 3475000 | rst: 0 | cke: 1 | xn:     10 | yn:      269568
Time: 3495000 | rst: 0 | cke: 1 | xn:     10 | yn:      270149
Time: 3515000 | rst: 0 | cke: 1 | xn:     10 | yn:      270724
Time: 3535000 | rst: 0 | cke: 1 | xn:     10 | yn:      271294
Time: 3555000 | rst: 0 | cke: 1 | xn:     10 | yn:      271858
Time: 3575000 | rst: 0 | cke: 1 | xn:     10 | yn:      272416
Time: 3595000 | rst: 0 | cke: 1 | xn:     10 | yn:      272969
Time: 3615000 | rst: 0 | cke: 1 | xn:     10 | yn:      273516
Time: 3635000 | rst: 0 | cke: 1 | xn:     10 | yn:      274058
Time: 3655000 | rst: 0 | cke: 1 | xn:     10 | yn:      274594
Time: 3675000 | rst: 0 | cke: 1 | xn:     10 | yn:      275125
Time: 3695000 | rst: 0 | cke: 1 | xn:     10 | yn:      275651
Time: 3715000 | rst: 0 | cke: 1 | xn:     10 | yn:      276171
Time: 3735000 | rst: 0 | cke: 1 | xn:     10 | yn:      276686
Time: 3755000 | rst: 0 | cke: 1 | xn:     10 | yn:      277196
Time: 3775000 | rst: 0 | cke: 1 | xn:     10 | yn:      277701
Time: 3795000 | rst: 0 | cke: 1 | xn:     10 | yn:      278201
Time: 3815000 | rst: 0 | cke: 1 | xn:     10 | yn:      278696
Time: 3835000 | rst: 0 | cke: 1 | xn:     10 | yn:      279186
Time: 3855000 | rst: 0 | cke: 1 | xn:     10 | yn:      279671
Time: 3875000 | rst: 0 | cke: 1 | xn:     10 | yn:      280151
Time: 3895000 | rst: 0 | cke: 1 | xn:     10 | yn:      280626
Time: 3915000 | rst: 0 | cke: 1 | xn:     10 | yn:      281096
Time: 3935000 | rst: 0 | cke: 1 | xn:     10 | yn:      281562
Time: 3955000 | rst: 0 | cke: 1 | xn:     10 | yn:      282023
Time: 3975000 | rst: 0 | cke: 1 | xn:     10 | yn:      282480
Time: 3995000 | rst: 0 | cke: 1 | xn:     10 | yn:      282932
Time: 4015000 | rst: 0 | cke: 1 | xn:     10 | yn:      283379
Time: 4035000 | rst: 0 | cke: 1 | xn:     10 | yn:      283822
Time: 4055000 | rst: 0 | cke: 1 | xn:     10 | yn:      284261
Time: 4075000 | rst: 0 | cke: 1 | xn:     10 | yn:      284695
Time: 4095000 | rst: 0 | cke: 1 | xn:     10 | yn:      285125
Time: 4115000 | rst: 0 | cke: 1 | xn:     10 | yn:      285550
Time: 4135000 | rst: 0 | cke: 1 | xn:     10 | yn:      285971
Time: 4155000 | rst: 0 | cke: 1 | xn:     10 | yn:      286388
Time: 4175000 | rst: 0 | cke: 1 | xn:     10 | yn:      286801
Time: 4195000 | rst: 0 | cke: 1 | xn:     10 | yn:      287210
Time: 4215000 | rst: 0 | cke: 1 | xn:     10 | yn:      287615
Time: 4235000 | rst: 0 | cke: 1 | xn:     10 | yn:      288016
Time: 4255000 | rst: 0 | cke: 1 | xn:     10 | yn:      288413
Time: 4275000 | rst: 0 | cke: 1 | xn:     10 | yn:      288806
Time: 4295000 | rst: 0 | cke: 1 | xn:     10 | yn:      289195
Time: 4315000 | rst: 0 | cke: 1 | xn:     10 | yn:      289580
Time: 4335000 | rst: 0 | cke: 1 | xn:     10 | yn:      289961
Time: 4355000 | rst: 0 | cke: 1 | xn:     10 | yn:      290338
Time: 4375000 | rst: 0 | cke: 1 | xn:     10 | yn:      290711
Time: 4395000 | rst: 0 | cke: 1 | xn:     10 | yn:      291081
Time: 4415000 | rst: 0 | cke: 1 | xn:     10 | yn:      291447
Time: 4435000 | rst: 0 | cke: 1 | xn:     10 | yn:      291809
Time: 4455000 | rst: 0 | cke: 1 | xn:     10 | yn:      292168
Time: 4475000 | rst: 0 | cke: 1 | xn:     10 | yn:      292523
Time: 4495000 | rst: 0 | cke: 1 | xn:     10 | yn:      292874
Time: 4515000 | rst: 0 | cke: 1 | xn:     10 | yn:      293222
Time: 4535000 | rst: 0 | cke: 1 | xn:     10 | yn:      293566
Time: 4555000 | rst: 0 | cke: 1 | xn:     10 | yn:      293907
Time: 4575000 | rst: 0 | cke: 1 | xn:     10 | yn:      294245
Time: 4595000 | rst: 0 | cke: 1 | xn:     10 | yn:      294579
Time: 4615000 | rst: 0 | cke: 1 | xn:     10 | yn:      294910
Time: 4635000 | rst: 0 | cke: 1 | xn:     10 | yn:      295238
Time: 4655000 | rst: 0 | cke: 1 | xn:     10 | yn:      295562
Time: 4675000 | rst: 0 | cke: 1 | xn:     10 | yn:      295883
Time: 4695000 | rst: 0 | cke: 1 | xn:     10 | yn:      296201
Time: 4715000 | rst: 0 | cke: 1 | xn:     10 | yn:      296516
Time: 4735000 | rst: 0 | cke: 1 | xn:     10 | yn:      296827
Time: 4755000 | rst: 0 | cke: 1 | xn:     10 | yn:      297135
Time: 4775000 | rst: 0 | cke: 1 | xn:     10 | yn:      297440
Time: 4795000 | rst: 0 | cke: 1 | xn:     10 | yn:      297742
Time: 4815000 | rst: 0 | cke: 1 | xn:     10 | yn:      298041
Time: 4835000 | rst: 0 | cke: 1 | xn:     10 | yn:      298337
Time: 4855000 | rst: 0 | cke: 1 | xn:     10 | yn:      298630
Time: 4875000 | rst: 0 | cke: 1 | xn:     10 | yn:      298920
Time: 4895000 | rst: 0 | cke: 1 | xn:     10 | yn:      299207
Time: 4915000 | rst: 0 | cke: 1 | xn:     10 | yn:      299492
Time: 4935000 | rst: 0 | cke: 1 | xn:     10 | yn:      299774
Time: 4955000 | rst: 0 | cke: 1 | xn:     10 | yn:      300053
Time: 4975000 | rst: 0 | cke: 1 | xn:     10 | yn:      300329
Time: 4995000 | rst: 0 | cke: 1 | xn:     10 | yn:      300602
Time: 5015000 | rst: 0 | cke: 1 | xn:     10 | yn:      300873
Time: 5035000 | rst: 0 | cke: 1 | xn:     10 | yn:      301141
Time: 5055000 | rst: 0 | cke: 1 | xn:     10 | yn:      301406
Time: 5075000 | rst: 0 | cke: 1 | xn:     10 | yn:      301668
Time: 5095000 | rst: 0 | cke: 1 | xn:     10 | yn:      301928
Time: 5115000 | rst: 0 | cke: 1 | xn:     10 | yn:      302185
Time: 5135000 | rst: 0 | cke: 1 | xn:     10 | yn:      302440
Time: 5155000 | rst: 0 | cke: 1 | xn:     10 | yn:      302692
Time: 5175000 | rst: 0 | cke: 1 | xn:     10 | yn:      302942
Time: 5195000 | rst: 0 | cke: 1 | xn:     10 | yn:      303189
Time: 5215000 | rst: 0 | cke: 1 | xn:     10 | yn:      303434
Time: 5235000 | rst: 0 | cke: 1 | xn:     10 | yn:      303676
Time: 5255000 | rst: 0 | cke: 1 | xn:     10 | yn:      303916
Time: 5275000 | rst: 0 | cke: 1 | xn:     10 | yn:      304153
Time: 5295000 | rst: 0 | cke: 1 | xn:     10 | yn:      304388
Time: 5315000 | rst: 0 | cke: 1 | xn:     10 | yn:      304621
Time: 5335000 | rst: 0 | cke: 1 | xn:     10 | yn:      304851
Time: 5355000 | rst: 0 | cke: 1 | xn:     10 | yn:      305079
Time: 5375000 | rst: 0 | cke: 1 | xn:     10 | yn:      305305
Time: 5395000 | rst: 0 | cke: 1 | xn:     10 | yn:      305528
Time: 5415000 | rst: 0 | cke: 1 | xn:     10 | yn:      305749
Time: 5435000 | rst: 0 | cke: 1 | xn:     10 | yn:      305968
Time: 5455000 | rst: 0 | cke: 1 | xn:     10 | yn:      306185
Time: 5475000 | rst: 0 | cke: 1 | xn:     10 | yn:      306400
Time: 5495000 | rst: 0 | cke: 1 | xn:     10 | yn:      306613
Time: 5515000 | rst: 0 | cke: 1 | xn:     10 | yn:      306823
Time: 5535000 | rst: 0 | cke: 1 | xn:     10 | yn:      307031
Time: 5555000 | rst: 0 | cke: 1 | xn:     10 | yn:      307237
Time: 5575000 | rst: 0 | cke: 1 | xn:     10 | yn:      307441
Time: 5595000 | rst: 0 | cke: 1 | xn:     10 | yn:      307643
Time: 5615000 | rst: 0 | cke: 1 | xn:     10 | yn:      307843
Time: 5635000 | rst: 0 | cke: 1 | xn:     10 | yn:      308041
Time: 5655000 | rst: 0 | cke: 1 | xn:     10 | yn:      308237
Time: 5675000 | rst: 0 | cke: 1 | xn:     10 | yn:      308431
Time: 5695000 | rst: 0 | cke: 1 | xn:     10 | yn:      308623
Time: 5715000 | rst: 0 | cke: 1 | xn:     10 | yn:      308813
Time: 5735000 | rst: 0 | cke: 1 | xn:     10 | yn:      309001
Time: 5755000 | rst: 0 | cke: 1 | xn:     10 | yn:      309187
Time: 5775000 | rst: 0 | cke: 1 | xn:     10 | yn:      309372
Time: 5795000 | rst: 0 | cke: 1 | xn:     10 | yn:      309555
Time: 5815000 | rst: 0 | cke: 1 | xn:     10 | yn:      309736
Time: 5835000 | rst: 0 | cke: 1 | xn:     10 | yn:      309915
Time: 5855000 | rst: 0 | cke: 1 | xn:     10 | yn:      310092
Time: 5875000 | rst: 0 | cke: 1 | xn:     10 | yn:      310268
Time: 5895000 | rst: 0 | cke: 1 | xn:     10 | yn:      310442
Time: 5915000 | rst: 0 | cke: 1 | xn:     10 | yn:      310614
Time: 5935000 | rst: 0 | cke: 1 | xn:     10 | yn:      310784
Time: 5955000 | rst: 0 | cke: 1 | xn:     10 | yn:      310953
Time: 5975000 | rst: 0 | cke: 1 | xn:     10 | yn:      311120
Time: 5995000 | rst: 0 | cke: 1 | xn:     10 | yn:      311285
Time: 6015000 | rst: 0 | cke: 1 | xn:     10 | yn:      311449
Time: 6035000 | rst: 0 | cke: 1 | xn:     10 | yn:      311611
Time: 6050000 | rst: 1 | cke: 1 | xn:    -10 | yn:      311611
Time: 6055000 | rst: 1 | cke: 1 | xn:    -10 | yn:           0
Time: 6070000 | rst: 0 | cke: 1 | xn:    -10 | yn:           0
Time: 6095000 | rst: 0 | cke: 1 | xn:    -10 | yn:       -3280
Time: 6115000 | rst: 0 | cke: 1 | xn:    -10 | yn:       -6528
Time: 6135000 | rst: 0 | cke: 1 | xn:    -10 | yn:       -9743
Time: 6155000 | rst: 0 | cke: 1 | xn:    -10 | yn:      -12926
Time: 6175000 | rst: 0 | cke: 1 | xn:    -10 | yn:      -16077
Time: 6195000 | rst: 0 | cke: 1 | xn:    -10 | yn:      -19197
Time: 6215000 | rst: 0 | cke: 1 | xn:    -10 | yn:      -22285
Time: 6235000 | rst: 0 | cke: 1 | xn:    -10 | yn:      -25342
Time: 6255000 | rst: 0 | cke: 1 | xn:    -10 | yn:      -28369
Time: 6275000 | rst: 0 | cke: 1 | xn:    -10 | yn:      -31366
Time: 6295000 | rst: 0 | cke: 1 | xn:    -10 | yn:      -34333
Time: 6315000 | rst: 0 | cke: 1 | xn:    -10 | yn:      -37270
Time: 6335000 | rst: 0 | cke: 1 | xn:    -10 | yn:      -40177
Time: 6355000 | rst: 0 | cke: 1 | xn:    -10 | yn:      -43055
Time: 6375000 | rst: 0 | cke: 1 | xn:    -10 | yn:      -45905
Time: 6395000 | rst: 0 | cke: 1 | xn:    -10 | yn:      -48726
Time: 6415000 | rst: 0 | cke: 1 | xn:    -10 | yn:      -51519
Time: 6435000 | rst: 0 | cke: 1 | xn:    -10 | yn:      -54284
Time: 6455000 | rst: 0 | cke: 1 | xn:    -10 | yn:      -57021
Time: 6475000 | rst: 0 | cke: 1 | xn:    -10 | yn:      -59731
Time: 6495000 | rst: 0 | cke: 1 | xn:    -10 | yn:      -62414
Time: 6515000 | rst: 0 | cke: 1 | xn:    -10 | yn:      -65070
Time: 6535000 | rst: 0 | cke: 1 | xn:    -10 | yn:      -67699
Time: 6555000 | rst: 0 | cke: 1 | xn:    -10 | yn:      -70302
Time: 6575000 | rst: 0 | cke: 1 | xn:    -10 | yn:      -72879
Time: 6595000 | rst: 0 | cke: 1 | xn:    -10 | yn:      -75430
Time: 6615000 | rst: 0 | cke: 1 | xn:    -10 | yn:      -77955
Time: 6635000 | rst: 0 | cke: 1 | xn:    -10 | yn:      -80455
Time: 6655000 | rst: 0 | cke: 1 | xn:    -10 | yn:      -82930
Time: 6675000 | rst: 0 | cke: 1 | xn:    -10 | yn:      -85380
Time: 6695000 | rst: 0 | cke: 1 | xn:    -10 | yn:      -87806
Time: 6715000 | rst: 0 | cke: 1 | xn:    -10 | yn:      -90208
Time: 6735000 | rst: 0 | cke: 1 | xn:    -10 | yn:      -92586
Time: 6755000 | rst: 0 | cke: 1 | xn:    -10 | yn:      -94940
Time: 6775000 | rst: 0 | cke: 1 | xn:    -10 | yn:      -97270
Time: 6795000 | rst: 0 | cke: 1 | xn:    -10 | yn:      -99577
Time: 6815000 | rst: 0 | cke: 1 | xn:    -10 | yn:     -101861
Time: 6835000 | rst: 0 | cke: 1 | xn:    -10 | yn:     -104122
Time: 6855000 | rst: 0 | cke: 1 | xn:    -10 | yn:     -106360
Time: 6875000 | rst: 0 | cke: 1 | xn:    -10 | yn:     -108576
Time: 6895000 | rst: 0 | cke: 1 | xn:    -10 | yn:     -110770
Time: 6915000 | rst: 0 | cke: 1 | xn:    -10 | yn:     -112942
Time: 6935000 | rst: 0 | cke: 1 | xn:    -10 | yn:     -115092
Time: 6955000 | rst: 0 | cke: 1 | xn:    -10 | yn:     -117220
Time: 6975000 | rst: 0 | cke: 1 | xn:    -10 | yn:     -119327
Time: 6995000 | rst: 0 | cke: 1 | xn:    -10 | yn:     -121413
Time: 7015000 | rst: 0 | cke: 1 | xn:    -10 | yn:     -123478
Time: 7035000 | rst: 0 | cke: 1 | xn:    -10 | yn:     -125523
Time: 7055000 | rst: 0 | cke: 1 | xn:    -10 | yn:     -127547
Time: 7075000 | rst: 0 | cke: 1 | xn:    -10 | yn:     -129551
Time: 7095000 | rst: 0 | cke: 1 | xn:    -10 | yn:     -131535
Time: 7115000 | rst: 0 | cke: 1 | xn:    -10 | yn:     -133499
Time: 7135000 | rst: 0 | cke: 1 | xn:    -10 | yn:     -135443
Time: 7155000 | rst: 0 | cke: 1 | xn:    -10 | yn:     -137368
Time: 7175000 | rst: 0 | cke: 1 | xn:    -10 | yn:     -139273
Time: 7195000 | rst: 0 | cke: 1 | xn:    -10 | yn:     -141159
Time: 7215000 | rst: 0 | cke: 1 | xn:    -10 | yn:     -143027
Time: 7235000 | rst: 0 | cke: 1 | xn:    -10 | yn:     -144876
Time: 7255000 | rst: 0 | cke: 1 | xn:    -10 | yn:     -146706
Time: 7275000 | rst: 0 | cke: 1 | xn:    -10 | yn:     -148518
Time: 7295000 | rst: 0 | cke: 1 | xn:    -10 | yn:     -150312
Time: 7315000 | rst: 0 | cke: 1 | xn:    -10 | yn:     -152088
Time: 7335000 | rst: 0 | cke: 1 | xn:    -10 | yn:     -153846
Time: 7355000 | rst: 0 | cke: 1 | xn:    -10 | yn:     -155587
Time: 7375000 | rst: 0 | cke: 1 | xn:    -10 | yn:     -157310
Time: 7395000 | rst: 0 | cke: 1 | xn:    -10 | yn:     -159016
Time: 7415000 | rst: 0 | cke: 1 | xn:    -10 | yn:     -160705
Time: 7435000 | rst: 0 | cke: 1 | xn:    -10 | yn:     -162377
Time: 7455000 | rst: 0 | cke: 1 | xn:    -10 | yn:     -164032
Time: 7475000 | rst: 0 | cke: 1 | xn:    -10 | yn:     -165671
Time: 7495000 | rst: 0 | cke: 1 | xn:    -10 | yn:     -167293
Time: 7515000 | rst: 0 | cke: 1 | xn:    -10 | yn:     -168899
Time: 7535000 | rst: 0 | cke: 1 | xn:    -10 | yn:     -170489
Time: 7555000 | rst: 0 | cke: 1 | xn:    -10 | yn:     -172063
Time: 7575000 | rst: 0 | cke: 1 | xn:    -10 | yn:     -173621
Time: 7595000 | rst: 0 | cke: 1 | xn:    -10 | yn:     -175164
Time: 7615000 | rst: 0 | cke: 1 | xn:    -10 | yn:     -176691
Time: 7635000 | rst: 0 | cke: 1 | xn:    -10 | yn:     -178203
Time: 7655000 | rst: 0 | cke: 1 | xn:    -10 | yn:     -179700
Time: 7675000 | rst: 0 | cke: 1 | xn:    -10 | yn:     -181182
Time: 7695000 | rst: 0 | cke: 1 | xn:    -10 | yn:     -182649
Time: 7715000 | rst: 0 | cke: 1 | xn:    -10 | yn:     -184101
Time: 7735000 | rst: 0 | cke: 1 | xn:    -10 | yn:     -185539
Time: 7755000 | rst: 0 | cke: 1 | xn:    -10 | yn:     -186962
Time: 7775000 | rst: 0 | cke: 1 | xn:    -10 | yn:     -188371
Time: 7795000 | rst: 0 | cke: 1 | xn:    -10 | yn:     -189766
Time: 7815000 | rst: 0 | cke: 1 | xn:    -10 | yn:     -191147
Time: 7835000 | rst: 0 | cke: 1 | xn:    -10 | yn:     -192514
Time: 7855000 | rst: 0 | cke: 1 | xn:    -10 | yn:     -193867
Time: 7875000 | rst: 0 | cke: 1 | xn:    -10 | yn:     -195207
Time: 7895000 | rst: 0 | cke: 1 | xn:    -10 | yn:     -196534
Time: 7915000 | rst: 0 | cke: 1 | xn:    -10 | yn:     -197847
Time: 7935000 | rst: 0 | cke: 1 | xn:    -10 | yn:     -199147
