Vivado/IIR/IIR.sim/sim_1/behav/xsim/simulate.log
Time resolution is 1 ps
Time: 0 | rst: 1 | cke: 0 | xn:      0 | yn:           x
Time: 5000 | rst: 1 | cke: 0 | xn:      0 | yn:           0
Time: 20000 | rst: 0 | cke: 1 | xn:      0 | yn:           0
Time: 30000 | rst: 0 | cke: 1 | xn:     10 | yn:           0
Time: 55000 | rst: 0 | cke: 1 | xn:     10 | yn:   107479040
Time: 75000 | rst: 0 | cke: 1 | xn:     10 | yn:   213882240
Time: 95000 | rst: 0 | cke: 1 | xn:     10 | yn:   319214920
Time: 115000 | rst: 0 | cke: 1 | xn:     10 | yn:   423477080
Time: 135000 | rst: 0 | cke: 1 | xn:     10 | yn:   526701160
Time: 155000 | rst: 0 | cke: 1 | xn:     10 | yn:   628887160
Time: 175000 | rst: 0 | cke: 1 | xn:     10 | yn:   730067520
Time: 195000 | rst: 0 | cke: 1 | xn:     10 | yn:   830209800
Time: 215000 | rst: 0 | cke: 1 | xn:     10 | yn:   929346440
Time: 235000 | rst: 0 | cke: 1 | xn:     10 | yn:  1027509880
Time: 255000 | rst: 0 | cke: 1 | xn:     10 | yn:  1124700120
Time: 275000 | rst: 0 | cke: 1 | xn:     10 | yn:  1220917160
Time: 295000 | rst: 0 | cke: 1 | xn:     10 | yn:  1316161000
Time: 315000 | rst: 0 | cke: 1 | xn:     10 | yn:  1410464080
Time: 335000 | rst: 0 | cke: 1 | xn:     10 | yn:  1503793960
Time: 355000 | rst: 0 | cke: 1 | xn:     10 | yn:  1596215520
Time: 375000 | rst: 0 | cke: 1 | xn:     10 | yn:  1687696320
Time: 395000 | rst: 0 | cke: 1 | xn:     10 | yn:  1778268800
Time: 415000 | rst: 0 | cke: 1 | xn:     10 | yn:  1867932960
Time: 435000 | rst: 0 | cke: 1 | xn:     10 | yn:  1956688800
Time: 455000 | rst: 0 | cke: 1 | xn:     10 | yn:  2044568760
Time: 475000 | rst: 0 | cke: 1 | xn:     10 | yn:  2131572840
Time: 495000 | rst: 0 | cke: 1 | xn:     10 | yn: -2077266256
Time: 515000 | rst: 0 | cke: 1 | xn:     10 | yn: -1992013936
Time: 535000 | rst: 0 | cke: 1 | xn:     10 | yn: -1907605056
Time: 555000 | rst: 0 | cke: 1 | xn:     10 | yn: -1824039616
Time: 575000 | rst: 0 | cke: 1 | xn:     10 | yn: -1741317616
Time: 595000 | rst: 0 | cke: 1 | xn:     10 | yn: -1659406616
Time: 615000 | rst: 0 | cke: 1 | xn:     10 | yn: -1578339056
Time: 635000 | rst: 0 | cke: 1 | xn:     10 | yn: -1498082496
Time: 655000 | rst: 0 | cke: 1 | xn:     10 | yn: -1418604496
Time: 675000 | rst: 0 | cke: 1 | xn:     10 | yn: -1339937496
Time: 695000 | rst: 0 | cke: 1 | xn:     10 | yn: -1262049056
Time: 715000 | rst: 0 | cke: 1 | xn:     10 | yn: -1184939176
Time: 735000 | rst: 0 | cke: 1 | xn:     10 | yn: -1108607856
Time: 755000 | rst: 0 | cke: 1 | xn:     10 | yn: -1033055096
Time: 775000 | rst: 0 | cke: 1 | xn:     10 | yn:  -958248456
Time: 795000 | rst: 0 | cke: 1 | xn:     10 | yn:  -884187936
Time: 815000 | rst: 0 | cke: 1 | xn:     10 | yn:  -810873536
Time: 835000 | rst: 0 | cke: 1 | xn:     10 | yn:  -738272816
Time: 855000 | rst: 0 | cke: 1 | xn:     10 | yn:  -666418216
Time: 875000 | rst: 0 | cke: 1 | xn:     10 | yn:  -595277296
Time: 895000 | rst: 0 | cke: 1 | xn:     10 | yn:  -524850056
Time: 915000 | rst: 0 | cke: 1 | xn:     10 | yn:  -455136496
Time: 935000 | rst: 0 | cke: 1 | xn:     10 | yn:  -386104176
Time: 955000 | rst: 0 | cke: 1 | xn:     10 | yn:  -317753096
Time: 975000 | rst: 0 | cke: 1 | xn:     10 | yn:  -250115696
Time: 995000 | rst: 0 | cke: 1 | xn:     10 | yn:  -183127096
Time: 1015000 | rst: 0 | cke: 1 | xn:     10 | yn:  -116819736
Time: 1035000 | rst: 0 | cke: 1 | xn:     10 | yn:   -51193616
Time: 1055000 | rst: 0 | cke: 1 | xn:     10 | yn:    13783704
Time: 1075000 | rst: 0 | cke: 1 | xn:     10 | yn:    78112224
Time: 1095000 | rst: 0 | cke: 1 | xn:     10 | yn:   141791944
Time: 1115000 | rst: 0 | cke: 1 | xn:     10 | yn:   204855304
Time: 1135000 | rst: 0 | cke: 1 | xn:     10 | yn:   267269864
Time: 1155000 | rst: 0 | cke: 1 | xn:     10 | yn:   329068064
Time: 1175000 | rst: 0 | cke: 1 | xn:     10 | yn:   390249904
Time: 1195000 | rst: 0 | cke: 1 | xn:     10 | yn:   450815384
Time: 1215000 | rst: 0 | cke: 1 | xn:     10 | yn:   510764504
Time: 1235000 | rst: 0 | cke: 1 | xn:     10 | yn:   570129704
Time: 1255000 | rst: 0 | cke: 1 | xn:     10 | yn:   628878544
Time: 1275000 | rst: 0 | cke: 1 | xn:     10 | yn:   687043464
Time: 1295000 | rst: 0 | cke: 1 | xn:     10 | yn:   744624464
Time: 1315000 | rst: 0 | cke: 1 | xn:     10 | yn:   801653984
Time: 1335000 | rst: 0 | cke: 1 | xn:     10 | yn:   858099584
Time: 1355000 | rst: 0 | cke: 1 | xn:     10 | yn:   913993704
Time: 1375000 | rst: 0 | cke: 1 | xn:     10 | yn:   969303904
Time: 1395000 | rst: 0 | cke: 1 | xn:     10 | yn:  1024062624
Time: 1415000 | rst: 0 | cke: 1 | xn:     10 | yn:  1078269864
Time: 1435000 | rst: 0 | cke: 1 | xn:     10 | yn:  1131958064
Time: 1455000 | rst: 0 | cke: 1 | xn:     10 | yn:  1185094784
Time: 1475000 | rst: 0 | cke: 1 | xn:     10 | yn:  1237712464
Time: 1495000 | rst: 0 | cke: 1 | xn:     10 | yn:  1289778664
Time: 1515000 | rst: 0 | cke: 1 | xn:     10 | yn:  1341325824
Time: 1535000 | rst: 0 | cke: 1 | xn:     10 | yn:  1392386384
Time: 1555000 | rst: 0 | cke: 1 | xn:     10 | yn:  1442927904
Time: 1575000 | rst: 0 | cke: 1 | xn:     10 | yn:  1492950384
Time: 1595000 | rst: 0 | cke: 1 | xn:     10 | yn:  1542486264
Time: 1615000 | rst: 0 | cke: 1 | xn:     10 | yn:  1591503104
Time: 1635000 | rst: 0 | cke: 1 | xn:     10 | yn:  1640033344
Time: 1655000 | rst: 0 | cke: 1 | xn:     10 | yn:  1688076984
Time: 1675000 | rst: 0 | cke: 1 | xn:     10 | yn:  1735666464
Time: 1695000 | rst: 0 | cke: 1 | xn:     10 | yn:  1782769344
Time: 1715000 | rst: 0 | cke: 1 | xn:     10 | yn:  1829385624
Time: 1735000 | rst: 0 | cke: 1 | xn:     10 | yn:  1875547744
Time: 1755000 | rst: 0 | cke: 1 | xn:     10 | yn:  1921255704
Time: 1775000 | rst: 0 | cke: 1 | xn:     10 | yn:  1966509504
Time: 1795000 | rst: 0 | cke: 1 | xn:     10 | yn:  2011309144
Time: 1815000 | rst: 0 | cke: 1 | xn:     10 | yn:  2055654624
Time: 1835000 | rst: 0 | cke: 1 | xn:     10 | yn:  2099545944
Time: 1855000 | rst: 0 | cke: 1 | xn:     10 | yn:  2143015544
Time: 1875000 | rst: 0 | cke: 1 | xn:     10 | yn: -2108936312
Time: 1895000 | rst: 0 | cke: 1 | xn:     10 | yn: -2066342592
Time: 1915000 | rst: 0 | cke: 1 | xn:     10 | yn: -2024170592
Time: 1935000 | rst: 0 | cke: 1 | xn:     10 | yn: -1982420312
Time: 1955000 | rst: 0 | cke: 1 | xn:     10 | yn: -1941091752
Time: 1975000 | rst: 0 | cke: 1 | xn:     10 | yn: -1900184912
Time: 1995000 | rst: 0 | cke: 1 | xn:     10 | yn: -1859699792
Time: 2015000 | rst: 0 | cke: 1 | xn:     10 | yn: -1819603952
Time: 2035000 | rst: 0 | cke: 1 | xn:     10 | yn: -1779897392
Time: 2055000 | rst: 0 | cke: 1 | xn:     10 | yn: -1740612552
Time: 2075000 | rst: 0 | cke: 1 | xn:     10 | yn: -1701716992
Time: 2095000 | rst: 0 | cke: 1 | xn:     10 | yn: -1663210712
Time: 2115000 | rst: 0 | cke: 1 | xn:     10 | yn: -1625093712
Time: 2135000 | rst: 0 | cke: 1 | xn:     10 | yn: -1587333552
Time: 2155000 | rst: 0 | cke: 1 | xn:     10 | yn: -1549962672
Time: 2175000 | rst: 0 | cke: 1 | xn:     10 | yn: -1512981072
Time: 2195000 | rst: 0 | cke: 1 | xn:     10 | yn: -1476356312
Time: 2215000 | rst: 0 | cke: 1 | xn:     10 | yn: -1440088392
Time: 2235000 | rst: 0 | cke: 1 | xn:     10 | yn: -1404209752
Time: 2255000 | rst: 0 | cke: 1 | xn:     10 | yn: -1368687952
Time: 2275000 | rst: 0 | cke: 1 | xn:     10 | yn: -1333522992
Time: 2295000 | rst: 0 | cke: 1 | xn:     10 | yn: -1298682432
Time: 2315000 | rst: 0 | cke: 1 | xn:     10 | yn: -1264198712
Time: 2335000 | rst: 0 | cke: 1 | xn:     10 | yn: -1230071832
Time: 2355000 | rst: 0 | cke: 1 | xn:     10 | yn: -1196269352
Time: 2375000 | rst: 0 | cke: 1 | xn:     10 | yn: -1162823712
Time: 2395000 | rst: 0 | cke: 1 | xn:     10 | yn: -1129702472
Time: 2415000 | rst: 0 | cke: 1 | xn:     10 | yn: -1096905632
Time: 2435000 | rst: 0 | cke: 1 | xn:     10 | yn: -1064433192
Time: 2455000 | rst: 0 | cke: 1 | xn:     10 | yn: -1032285152
Time: 2475000 | rst: 0 | cke: 1 | xn:     10 | yn: -1000461512
Time: 2495000 | rst: 0 | cke: 1 | xn:     10 | yn:  -968962272
Time: 2515000 | rst: 0 | cke: 1 | xn:     10 | yn:  -937787432
Time: 2535000 | rst: 0 | cke: 1 | xn:     10 | yn:  -906936992
Time: 2555000 | rst: 0 | cke: 1 | xn:     10 | yn:  -876378512
Time: 2575000 | rst: 0 | cke: 1 | xn:     10 | yn:  -846111992
Time: 2595000 | rst: 0 | cke: 1 | xn:     10 | yn:  -816169872
Time: 2615000 | rst: 0 | cke: 1 | xn:     10 | yn:  -786519712
Time: 2635000 | rst: 0 | cke: 1 | xn:     10 | yn:  -757161512
Time: 2655000 | rst: 0 | cke: 1 | xn:     10 | yn:  -728095272
Time: 2675000 | rst: 0 | cke: 1 | xn:     10 | yn:  -699320992
Time: 2695000 | rst: 0 | cke: 1 | xn:     10 | yn:  -670838672
Time: 2715000 | rst: 0 | cke: 1 | xn:     10 | yn:  -642648312
Time: 2735000 | rst: 0 | cke: 1 | xn:     10 | yn:  -614749912
Time: 2755000 | rst: 0 | cke: 1 | xn:     10 | yn:  -587111032
Time: 2775000 | rst: 0 | cke: 1 | xn:     10 | yn:  -559764112
Time: 2795000 | rst: 0 | cke: 1 | xn:     10 | yn:  -532676712
Time: 2815000 | rst: 0 | cke: 1 | xn:     10 | yn:  -505881272
Time: 2835000 | rst: 0 | cke: 1 | xn:     10 | yn:  -479345352
Time: 2855000 | rst: 0 | cke: 1 | xn:     10 | yn:  -453068952
Time: 2875000 | rst: 0 | cke: 1 | xn:     10 | yn:  -427052072
Time: 2895000 | rst: 0 | cke: 1 | xn:     10 | yn:  -401294712
Time: 2915000 | rst: 0 | cke: 1 | xn:     10 | yn:  -375796872
Time: 2935000 | rst: 0 | cke: 1 | xn:     10 | yn:  -350558552
Time: 2955000 | rst: 0 | cke: 1 | xn:     10 | yn:  -325579752
Time: 2975000 | rst: 0 | cke: 1 | xn:     10 | yn:  -300828032
Time: 2995000 | rst: 0 | cke: 1 | xn:     10 | yn:  -276335832
Time: 3015000 | rst: 0 | cke: 1 | xn:     10 | yn:  -252103152
Time: 3035000 | rst: 0 | cke: 1 | xn:     10 | yn:  -228097552
Time: 3055000 | rst: 0 | cke: 1 | xn:     10 | yn:  -204319032
Time: 3075000 | rst: 0 | cke: 1 | xn:     10 | yn:  -180800032
Time: 3095000 | rst: 0 | cke: 1 | xn:     10 | yn:  -157508112
Time: 3115000 | rst: 0 | cke: 1 | xn:     10 | yn:  -134443272
Time: 3135000 | rst: 0 | cke: 1 | xn:     10 | yn:  -111605512
Time: 3155000 | rst: 0 | cke: 1 | xn:     10 | yn:   -88994832
Time: 3175000 | rst: 0 | cke: 1 | xn:     10 | yn:   -66611232
Time: 3195000 | rst: 0 | cke: 1 | xn:     10 | yn:   -44454712
Time: 3215000 | rst: 0 | cke: 1 | xn:     10 | yn:   -22525272
Time: 3235000 | rst: 0 | cke: 1 | xn:     10 | yn:     -822912
Time: 3255000 | rst: 0 | cke: 1 | xn:     10 | yn:    20652368
Time: 3275000 | rst: 0 | cke: 1 | xn:     10 | yn:    41933008
Time: 3295000 | rst: 0 | cke: 1 | xn:     10 | yn:    62986568
Time: 3315000 | rst: 0 | cke: 1 | xn:     10 | yn:    83845488
Time: 3335000 | rst: 0 | cke: 1 | xn:     10 | yn:   104477328
Time: 3355000 | rst: 0 | cke: 1 | xn:     10 | yn:   124914528
Time: 3375000 | rst: 0 | cke: 1 | xn:     10 | yn:   145157088
Time: 3395000 | rst: 0 | cke: 1 | xn:     10 | yn:   165172568
Time: 3415000 | rst: 0 | cke: 1 | xn:     10 | yn:   184993408
Time: 3435000 | rst: 0 | cke: 1 | xn:     10 | yn:   204619608
Time: 3455000 | rst: 0 | cke: 1 | xn:     10 | yn:   224051168
Time: 3475000 | rst: 0 | cke: 1 | xn:     10 | yn:   243288088
Time: 3495000 | rst: 0 | cke: 1 | xn:     10 | yn:   262330368
Time: 3515000 | rst: 0 | cke: 1 | xn:     10 | yn:   281178008
Time: 3535000 | rst: 0 | cke: 1 | xn:     10 | yn:   299831008
Time: 3555000 | rst: 0 | cke: 1 | xn:     10 | yn:   318321808
Time: 3575000 | rst: 0 | cke: 1 | xn:     10 | yn:   336617968
Time: 3595000 | rst: 0 | cke: 1 | xn:     10 | yn:   354719488
Time: 3615000 | rst: 0 | cke: 1 | xn:     10 | yn:   372658808
Time: 3635000 | rst: 0 | cke: 1 | xn:     10 | yn:   390403488
Time: 3655000 | rst: 0 | cke: 1 | xn:     10 | yn:   407985968
Time: 3675000 | rst: 0 | cke: 1 | xn:     10 | yn:   425373808
Time: 3695000 | rst: 0 | cke: 1 | xn:     10 | yn:   442599448
Time: 3715000 | rst: 0 | cke: 1 | xn:     10 | yn:   459662888
Time: 3735000 | rst: 0 | cke: 1 | xn:     10 | yn:   476531688
Time: 3755000 | rst: 0 | cke: 1 | xn:     10 | yn:   493238288
Time: 3775000 | rst: 0 | cke: 1 | xn:     10 | yn:   509782688
Time: 3795000 | rst: 0 | cke: 1 | xn:     10 | yn:   526164888
Time: 3815000 | rst: 0 | cke: 1 | xn:     10 | yn:   542384888
Time: 3835000 | rst: 0 | cke: 1 | xn:     10 | yn:   558442688
Time: 3855000 | rst: 0 | cke: 1 | xn:     10 | yn:   574338288
Time: 3875000 | rst: 0 | cke: 1 | xn:     10 | yn:   590071688
Time: 3895000 | rst: 0 | cke: 1 | xn:     10 | yn:   605642888
Time: 3915000 | rst: 0 | cke: 1 | xn:     10 | yn:   621051888
Time: 3935000 | rst: 0 | cke: 1 | xn:     10 | yn:   636298688
Time: 3955000 | rst: 0 | cke: 1 | xn:     10 | yn:   651415728
Time: 3975000 | rst: 0 | cke: 1 | xn:     10 | yn:   666370568
Time: 3995000 | rst: 0 | cke: 1 | xn:     10 | yn:   681195648
Time: 4015000 | rst: 0 | cke: 1 | xn:     10 | yn:   695858528
Time: 4035000 | rst: 0 | cke: 1 | xn:     10 | yn:   710359208
Time: 4055000 | rst: 0 | cke: 1 | xn:     10 | yn:   724730128
Time: 4075000 | rst: 0 | cke: 1 | xn:     10 | yn:   738971288
Time: 4095000 | rst: 0 | cke: 1 | xn:     10 | yn:   753050248
Time: 4115000 | rst: 0 | cke: 1 | xn:     10 | yn:   766999448
Time: 4135000 | rst: 0 | cke: 1 | xn:     10 | yn:   780786448
Time: 4155000 | rst: 0 | cke: 1 | xn:     10 | yn:   794443688
Time: 4175000 | rst: 0 | cke: 1 | xn:     10 | yn:   807971168
Time: 4195000 | rst: 0 | cke: 1 | xn:     10 | yn:   821368888
Time: 4215000 | rst: 0 | cke: 1 | xn:     10 | yn:   834636848
Time: 4235000 | rst: 0 | cke: 1 | xn:     10 | yn:   847775048
Time: 4255000 | rst: 0 | cke: 1 | xn:     10 | yn:   860783488
Time: 4275000 | rst: 0 | cke: 1 | xn:     10 | yn:   873662168
Time: 4295000 | rst: 0 | cke: 1 | xn:     10 | yn:   886411088
Time: 4315000 | rst: 0 | cke: 1 | xn:     10 | yn:   899030248
Time: 4335000 | rst: 0 | cke: 1 | xn:     10 | yn:   911519648
Time: 4355000 | rst: 0 | cke: 1 | xn:     10 | yn:   923879288
Time: 4375000 | rst: 0 | cke: 1 | xn:     10 | yn:   936109168
Time: 4395000 | rst: 0 | cke: 1 | xn:     10 | yn:   948209288
Time: 4415000 | rst: 0 | cke: 1 | xn:     10 | yn:   960212088
Time: 4435000 | rst: 0 | cke: 1 | xn:     10 | yn:   972085128
Time: 4455000 | rst: 0 | cke: 1 | xn:     10 | yn:   983828408
Time: 4475000 | rst: 0 | cke: 1 | xn:     10 | yn:   995474368
Time: 4495000 | rst: 0 | cke: 1 | xn:     10 | yn:  1006990568
Time: 4515000 | rst: 0 | cke: 1 | xn:     10 | yn:  1018377008
Time: 4535000 | rst: 0 | cke: 1 | xn:     10 | yn:  1029666128
Time: 4555000 | rst: 0 | cke: 1 | xn:     10 | yn:  1040825488
Time: 4575000 | rst: 0 | cke: 1 | xn:     10 | yn:  1051887528
Time: 4595000 | rst: 0 | cke: 1 | xn:     10 | yn:  1062852248
Time: 4615000 | rst: 0 | cke: 1 | xn:     10 | yn:  1073687208
Time: 4635000 | rst: 0 | cke: 1 | xn:     10 | yn:  1084424848
Time: 4655000 | rst: 0 | cke: 1 | xn:     10 | yn:  1095065168
Time: 4675000 | rst: 0 | cke: 1 | xn:     10 | yn:  1105575728
Time: 4695000 | rst: 0 | cke: 1 | xn:     10 | yn:  1115988968
Time: 4715000 | rst: 0 | cke: 1 | xn:     10 | yn:  1126304888
Time: 4735000 | rst: 0 | cke: 1 | xn:     10 | yn:  1136523488
Time: 4755000 | rst: 0 | cke: 1 | xn:     10 | yn:  1146612328
Time: 4775000 | rst: 0 | cke: 1 | xn:     10 | yn:  1156603848
Time: 4795000 | rst: 0 | cke: 1 | xn:     10 | yn:  1166498048
Time: 4815000 | rst: 0 | cke: 1 | xn:     10 | yn:  1176294928
Time: 4835000 | rst: 0 | cke: 1 | xn:     10 | yn:  1185994488
Time: 4855000 | rst: 0 | cke: 1 | xn:     10 | yn:  1195596728
Time: 4875000 | rst: 0 | cke: 1 | xn:     10 | yn:  1205101648
Time: 4895000 | rst: 0 | cke: 1 | xn:     10 | yn:  1214509248
Time: 4915000 | rst: 0 | cke: 1 | xn:     10 | yn:  1223819528
Time: 4935000 | rst: 0 | cke: 1 | xn:     10 | yn:  1233064928
Time: 4955000 | rst: 0 | cke: 1 | xn:     10 | yn:  1242213008
Time: 4975000 | rst: 0 | cke: 1 | xn:     10 | yn:  1251263768
Time: 4995000 | rst: 0 | cke: 1 | xn:     10 | yn:  1260217208
Time: 5015000 | rst: 0 | cke: 1 | xn:     10 | yn:  1269073328
Time: 5035000 | rst: 0 | cke: 1 | xn:     10 | yn:  1277864568
Time: 5055000 | rst: 0 | cke: 1 | xn:     10 | yn:  1286558488
Time: 5075000 | rst: 0 | cke: 1 | xn:     10 | yn:  1295155088
Time: 5095000 | rst: 0 | cke: 1 | xn:     10 | yn:  1303654368
Time: 5115000 | rst: 0 | cke: 1 | xn:     10 | yn:  1312088768
Time: 5135000 | rst: 0 | cke: 1 | xn:     10 | yn:  1320425848
Time: 5155000 | rst: 0 | cke: 1 | xn:     10 | yn:  1328698048
Time: 5175000 | rst: 0 | cke: 1 | xn:     10 | yn:  1336872928
Time: 5195000 | rst: 0 | cke: 1 | xn:     10 | yn:  1344982928
Time: 5215000 | rst: 0 | cke: 1 | xn:     10 | yn:  1352995608
Time: 5235000 | rst: 0 | cke: 1 | xn:     10 | yn:  1360943408
Time: 5255000 | rst: 0 | cke: 1 | xn:     10 | yn:  1368793888
Time: 5275000 | rst: 0 | cke: 1 | xn:     10 | yn:  1376579488
Time: 5295000 | rst: 0 | cke: 1 | xn:     10 | yn:  1384267768
Time: 5315000 | rst: 0 | cke: 1 | xn:     10 | yn:  1391891168
Time: 5335000 | rst: 0 | cke: 1 | xn:     10 | yn:  1399449688
Time: 5355000 | rst: 0 | cke: 1 | xn:     10 | yn:  1406910888
Time: 5375000 | rst: 0 | cke: 1 | xn:     10 | yn:  1414307208
Time: 5395000 | rst: 0 | cke: 1 | xn:     10 | yn:  1421638648
Time: 5415000 | rst: 0 | cke: 1 | xn:     10 | yn:  1428872768
Time: 5435000 | rst: 0 | cke: 1 | xn:     10 | yn:  1436042008
Time: 5455000 | rst: 0 | cke: 1 | xn:     10 | yn:  1443146368
Time: 5475000 | rst: 0 | cke: 1 | xn:     10 | yn:  1450185848
Time: 5495000 | rst: 0 | cke: 1 | xn:     10 | yn:  1457160448
Time: 5515000 | rst: 0 | cke: 1 | xn:     10 | yn:  1464070168
Time: 5535000 | rst: 0 | cke: 1 | xn:     10 | yn:  1470882568
Time: 5555000 | rst: 0 | cke: 1 | xn:     10 | yn:  1477630088
Time: 5575000 | rst: 0 | cke: 1 | xn:     10 | yn:  1484312728
Time: 5595000 | rst: 0 | cke: 1 | xn:     10 | yn:  1490930488
Time: 5615000 | rst: 0 | cke: 1 | xn:     10 | yn:  1497483368
Time: 5635000 | rst: 0 | cke: 1 | xn:     10 | yn:  1503971368
Time: 5655000 | rst: 0 | cke: 1 | xn:     10 | yn:  1510394488
Time: 5675000 | rst: 0 | cke: 1 | xn:     10 | yn:  1516752728
Time: 5695000 | rst: 0 | cke: 1 | xn:     10 | yn:  1523046088
Time: 5715000 | rst: 0 | cke: 1 | xn:     10 | yn:  1529274568
Time: 5735000 | rst: 0 | cke: 1 | xn:     10 | yn:  1535438168
Time: 5755000 | rst: 0 | cke: 1 | xn:     10 | yn:  1541536888
Time: 5775000 | rst: 0 | cke: 1 | xn:     10 | yn:  1547570728
Time: 5795000 | rst: 0 | cke: 1 | xn:     10 | yn:  1553572128
Time: 5815000 | rst: 0 | cke: 1 | xn:     10 | yn:  1559508648
Time: 5835000 | rst: 0 | cke: 1 | xn:     10 | yn:  1565380288
Time: 5855000 | rst: 0 | cke: 1 | xn:     10 | yn:  1571187048
Time: 5875000 | rst: 0 | cke: 1 | xn:     10 | yn:  1576928928
Time: 5895000 | rst: 0 | cke: 1 | xn:     10 | yn:  1582638368
Time: 5915000 | rst: 0 | cke: 1 | xn:     10 | yn:  1588282928
Time: 5935000 | rst: 0 | cke: 1 | xn:     10 | yn:  1593862608
Time: 5955000 | rst: 0 | cke: 1 | xn:     10 | yn:  1599377408
Time: 5975000 | rst: 0 | cke: 1 | xn:     10 | yn:  1604859768
Time: 5995000 | rst: 0 | cke: 1 | xn:     10 | yn:  1610277248
Time: 6015000 | rst: 0 | cke: 1 | xn:     10 | yn:  1615629848
Time: 6035000 | rst: 0 | cke: 1 | xn:     10 | yn:  1620950008
Time: 6050000 | rst: 1 | cke: 1 | xn:     10 | yn:  1620950008
Time: 6055000 | rst: 1 | cke: 1 | xn:     10 | yn:           0
Time: 6070000 | rst: 0 | cke: 1 | xn:     10 | yn:           0
Time: 6080000 | rst: 0 | cke: 1 | xn:    -10 | yn:           0
Time: 6095000 | rst: 0 | cke: 1 | xn:    -10 | yn:   107479040
Time: 6105000 | rst: 0 | cke: 1 | xn:    -10 | yn:  -107479040
Time: 6115000 | rst: 0 | cke: 1 | xn:    -10 | yn:    -1075840
Time: 6125000 | rst: 0 | cke: 1 | xn:    -10 | yn:  -213882240
Time: 6135000 | rst: 0 | cke: 1 | xn:    -10 | yn:  -108549560
Time: 6145000 | rst: 0 | cke: 1 | xn:    -10 | yn:   897100800
Time: 6155000 | rst: 0 | cke: 1 | xn:    -10 | yn:  1001395400
Time: 6165000 | rst: 0 | cke: 1 | xn:    -10 | yn: -1210614984
Time: 6175000 | rst: 0 | cke: 1 | xn:    -10 | yn: -1107358464
Time: 6185000 | rst: 0 | cke: 1 | xn:    -10 | yn:  1913121040
Time: 6195000 | rst: 0 | cke: 1 | xn:    -10 | yn:  2015371920
Time: 6205000 | rst: 0 | cke: 1 | xn:    -10 | yn:  1540050120
Time: 6215000 | rst: 0 | cke: 1 | xn:    -10 | yn:  1641295360
Time: 6225000 | rst: 0 | cke: 1 | xn:    -10 | yn:  1828177872
Time: 6235000 | rst: 0 | cke: 1 | xn:    -10 | yn:  1928417472
Time: 6245000 | rst: 0 | cke: 1 | xn:    -10 | yn: -1653062200
Time: 6255000 | rst: 0 | cke: 1 | xn:    -10 | yn: -1553828240
Time: 6265000 | rst: 0 | cke: 1 | xn:    -10 | yn:  -447972224
Time: 6275000 | rst: 0 | cke: 1 | xn:    -10 | yn:  -349743904
Time: 6285000 | rst: 0 | cke: 1 | xn:    -10 | yn:  1015573824
Time: 6295000 | rst: 0 | cke: 1 | xn:    -10 | yn:  1112828944
Time: 6305000 | rst: 0 | cke: 1 | xn:    -10 | yn: -1688935552
Time: 6315000 | rst: 0 | cke: 1 | xn:    -10 | yn: -1592653632
Time: 6325000 | rst: 0 | cke: 1 | xn:    -10 | yn:  -101812360
Time: 6335000 | rst: 0 | cke: 1 | xn:    -10 | yn:    -6471200
Time: 6345000 | rst: 0 | cke: 1 | xn:    -10 | yn:  1353027104
Time: 6355000 | rst: 0 | cke: 1 | xn:    -10 | yn:  1447427504
Time: 6365000 | rst: 0 | cke: 1 | xn:    -10 | yn: -1747003416
Time: 6375000 | rst: 0 | cke: 1 | xn:    -10 | yn: -1653576216
Time: 6385000 | rst: 0 | cke: 1 | xn:    -10 | yn:  -938388008
Time: 6395000 | rst: 0 | cke: 1 | xn:    -10 | yn:  -845901568
Time: 6405000 | rst: 0 | cke: 1 | xn:    -10 | yn:  -641182608
Time: 6415000 | rst: 0 | cke: 1 | xn:    -10 | yn:  -549604488
Time: 6425000 | rst: 0 | cke: 1 | xn:    -10 | yn:  -979243136
Time: 6435000 | rst: 0 | cke: 1 | xn:    -10 | yn:  -888573336
Time: 6445000 | rst: 0 | cke: 1 | xn:    -10 | yn: -2075192792
Time: 6455000 | rst: 0 | cke: 1 | xn:    -10 | yn: -1985431312
Time: 6465000 | rst: 0 | cke: 1 | xn:    -10 | yn:   244577680
Time: 6475000 | rst: 0 | cke: 1 | xn:    -10 | yn:   333430840
Time: 6485000 | rst: 0 | cke: 1 | xn:    -10 | yn:  1564878344
Time: 6495000 | rst: 0 | cke: 1 | xn:    -10 | yn:  1652855624
Time: 6505000 | rst: 0 | cke: 1 | xn:    -10 | yn:  1766784160
Time: 6515000 | rst: 0 | cke: 1 | xn:    -10 | yn:  1853885560
Time: 6525000 | rst: 0 | cke: 1 | xn:    -10 | yn:   732473048
Time: 6535000 | rst: 0 | cke: 1 | xn:    -10 | yn:   818731008
Time: 6545000 | rst: 0 | cke: 1 | xn:    -10 | yn: -1654611912
Time: 6555000 | rst: 0 | cke: 1 | xn:    -10 | yn: -1569229832
Time: 6565000 | rst: 0 | cke: 1 | xn:    -10 | yn: -1214957384
Time: 6575000 | rst: 0 | cke: 1 | xn:    -10 | yn: -1130451184
Time: 6585000 | rst: 0 | cke: 1 | xn:    -10 | yn:  1937150512
Time: 6595000 | rst: 0 | cke: 1 | xn:    -10 | yn:  2020813272
Time: 6605000 | rst: 0 | cke: 1 | xn:    -10 | yn:  -901341096
Time: 6615000 | rst: 0 | cke: 1 | xn:    -10 | yn:  -818521776
Time: 6625000 | rst: 0 | cke: 1 | xn:    -10 | yn: -1252512936
Time: 6635000 | rst: 0 | cke: 1 | xn:    -10 | yn: -1170537056
Time: 6645000 | rst: 0 | cke: 1 | xn:    -10 | yn:   772755072
Time: 6655000 | rst: 0 | cke: 1 | xn:    -10 | yn:   853919952
Time: 6665000 | rst: 0 | cke: 1 | xn:    -10 | yn:   769718672
Time: 6675000 | rst: 0 | cke: 1 | xn:    -10 | yn:   850072552
Time: 6685000 | rst: 0 | cke: 1 | xn:    -10 | yn: -1370296136
Time: 6695000 | rst: 0 | cke: 1 | xn:    -10 | yn: -1290720816
Time: 6705000 | rst: 0 | cke: 1 | xn:    -10 | yn: -1459893096
Time: 6715000 | rst: 0 | cke: 1 | xn:    -10 | yn: -1381096336
Time: 6725000 | rst: 0 | cke: 1 | xn:    -10 | yn:  1933736840
Time: 6735000 | rst: 0 | cke: 1 | xn:    -10 | yn:  2011755040
Time: 6745000 | rst: 0 | cke: 1 | xn:    -10 | yn:   185771744
Time: 6755000 | rst: 0 | cke: 1 | xn:    -10 | yn:   263011384
Time: 6765000 | rst: 0 | cke: 1 | xn:    -10 | yn:  1851662488
Time: 6775000 | rst: 0 | cke: 1 | xn:    -10 | yn:  1928123568
Time: 6785000 | rst: 0 | cke: 1 | xn:    -10 | yn: -1692717280
Time: 6795000 | rst: 0 | cke: 1 | xn:    -10 | yn: -1617034760
Time: 6805000 | rst: 0 | cke: 1 | xn:    -10 | yn: -1891267888
Time: 6815000 | rst: 0 | cke: 1 | xn:    -10 | yn: -1816331488
Time: 6825000 | rst: 0 | cke: 1 | xn:    -10 | yn:  1222532584
Time: 6835000 | rst: 0 | cke: 1 | xn:    -10 | yn:  1296690424
Time: 6845000 | rst: 0 | cke: 1 | xn:    -10 | yn:  -974436576
Time: 6855000 | rst: 0 | cke: 1 | xn:    -10 | yn:  -901024856
